
{"photos":{"page":1,"pages":18949,"perpage":20,"total":378979,"photo":[{"id":"52106899991","owner":"68416904@N03","secret":"1817255b86","server":"65535","farm":66,"title":"CHERISH THE PAST: READ ON BELOW...","ispublic":1,"isfriend":0,"isfamily":0},{"id":"52107141019","owner":"185904552@N07","secret":"2306b1efe6","server":"65535","farm":66,"title":"Baby swans \/ b\u00e9b\u00e9s cygnes","ispublic":1,"isfriend":0,"isfamily":0},{"id":"52106879163","owner":"78367308@N03","secret":"9b87482b5c","server":"65535","farm":66,"title":"Cry wolf.","ispublic":1,"isfriend":0,"isfamily":0},{"id":"52105829157","owner":"195704955@N07","secret":"69b390c3a2","server":"65535","farm":66,"title":"Corporate Sphere Logo with Shattered Squares","ispublic":1,"isfriend":0,"isfamily":0},{"id":"52105823507","owner":"194877316@N08","secret":"e0b69d7de1","server":"65535","farm":66,"title":"Proud Dad Of Two Awesome Girls","ispublic":1,"isfriend":0,"isfamily":0},{"id":"52107097064","owner":"26695302@N08","secret":"43bdc36f4f","server":"65535","farm":66,"title":"Rainbow","ispublic":1,"isfriend":0,"isfamily":0},{"id":"52105814562","owner":"79022518@N07","secret":"b2d8f13046","server":"65535","farm":66,"title":"2PRO_5382","ispublic":1,"isfriend":0,"isfamily":0},{"id":"52107299945","owner":"192701999@N03","secret":"cd4b0e199b","server":"65535","farm":66,"title":"Snowy owl","ispublic":1,"isfriend":0,"isfamily":0},{"id":"52107355730","owner":"43164076@N06","secret":"ab29c39f04","server":"65535","farm":66,"title":"Caving In (b&w)","ispublic":1,"isfriend":0,"isfamily":0},{"id":"52107094949","owner":"113432645@N05","secret":"b544ee71ac","server":"65535","farm":66,"title":"WB220104","ispublic":1,"isfriend":0,"isfamily":0},{"id":"52107094889","owner":"113432645@N05","secret":"a735b9dcb3","server":"65535","farm":66,"title":"WB220106","ispublic":1,"isfriend":0,"isfamily":0}]},"stat":"ok"}
